{
	"id": "46336728-bff8-4e98-8a5c-8f52bba0f106",
	"name": "HIBERUS_LOCALHOST",
	"values": [
		{
			"key": "DH_URL",
			"value": "http://localhost:8080/api/v1",
			"enabled": true
		}
	],
	"_postman_variable_scope": "environment",
	"_postman_exported_at": "2021-06-03T21:47:41.712Z",
	"_postman_exported_using": "Postman/7.36.5"
}