{
	"info": {
		"_postman_id": "3cf40432-0d66-4c10-a355-f5b70d1fbdd6",
		"name": "Demo-Hiberus",
		"schema": "https://schema.getpostman.com/json/collection/v2.1.0/collection.json"
	},
	"item": [
		{
			"name": "GetAll",
			"request": {
				"method": "GET",
				"header": [
					{
						"key": "Content-Type",
						"value": "application/json",
						"type": "text"
					}
				],
				"url": {
					"raw": "{{DH_URL}}/superheroes",
					"host": [
						"{{DH_URL}}"
					],
					"path": [
						"superheroes"
					]
				}
			},
			"response": []
		},
		{
			"name": "Get",
			"request": {
				"method": "GET",
				"header": [
					{
						"key": "Content-Type",
						"type": "text",
						"value": "application/json"
					}
				],
				"url": {
					"raw": "{{DH_URL}}/superheroes/1",
					"host": [
						"{{DH_URL}}"
					],
					"path": [
						"superheroes",
						"1"
					]
				}
			},
			"response": []
		},
		{
			"name": "Delete",
			"request": {
				"method": "DELETE",
				"header": [
					{
						"key": "Content-Type",
						"type": "text",
						"value": "application/json"
					}
				],
				"url": {
					"raw": "{{DH_URL}}/superheroes/2",
					"host": [
						"{{DH_URL}}"
					],
					"path": [
						"superheroes",
						"2"
					]
				}
			},
			"response": []
		},
		{
			"name": "Find",
			"request": {
				"method": "POST",
				"header": [
					{
						"key": "Content-Type",
						"type": "text",
						"value": "application/json"
					}
				],
				"body": {
					"mode": "raw",
					"raw": "{\n  \"name\": \"man\"\n}"
				},
				"url": {
					"raw": "{{DH_URL}}/superheroes/find",
					"host": [
						"{{DH_URL}}"
					],
					"path": [
						"superheroes",
						"find"
					]
				}
			},
			"response": []
		},
		{
			"name": "Create",
			"request": {
				"method": "POST",
				"header": [
					{
						"key": "Content-Type",
						"type": "text",
						"value": "application/json"
					}
				],
				"body": {
					"mode": "raw",
					"raw": "{\n  \"alias\": \"Iron Man\",\n  \"dateOfBirth\": \"04-03-2000 14:55:00\",\n  \"firstName\": \"Tony\",\n  \"gender\": true,\n  \"lastName\": \"Start\",\n  \"skills\": \"Traje de metal, inteligencia\"\n}"
				},
				"url": {
					"raw": "{{DH_URL}}/superheroes",
					"host": [
						"{{DH_URL}}"
					],
					"path": [
						"superheroes"
					]
				}
			},
			"response": []
		},
		{
			"name": "Edit",
			"request": {
				"method": "PUT",
				"header": [
					{
						"key": "Content-Type",
						"type": "text",
						"value": "application/json"
					}
				],
				"body": {
					"mode": "raw",
					"raw": "{\n  \"id\": \"1\",\n  \"alias\": \"Modificado\",\n  \"dateOfBirth\": \"04-03-2000 14:55:00\",\n  \"firstName\": \"Tony\",\n  \"gender\": true,\n  \"lastName\": \"Start\",\n  \"skills\": \"Traje de metal, inteligencia\"\n}"
				},
				"url": {
					"raw": "{{DH_URL}}/superheroes",
					"host": [
						"{{DH_URL}}"
					],
					"path": [
						"superheroes"
					]
				}
			},
			"response": []
		}
	]
}